%YAML 1.1
%TAG !u! tag:unity3d.com,2011:
--- !u!114 &11400000
MonoBehaviour:
  m_ObjectHideFlags: 0
  m_CorrespondingSourceObject: {fileID: 0}
  m_PrefabInstance: {fileID: 0}
  m_PrefabAsset: {fileID: 0}
  m_GameObject: {fileID: 0}
  m_Enabled: 1
  m_EditorHideFlags: 0
  m_Script: {fileID: 11500000, guid: 77141cbbd6dfd214c9b464b814f39c27, type: 3}
  m_Name: TacticalBelt
  m_EditorClassIdentifier: 
  itemInstancePrefab: {fileID: 5047820424077130510, guid: a6b27221eb1a5d14fb5a975f97b6f5a5, type: 3}
  inventoryData:
    slots:
    - SlotID: Right
    - SlotID: Front_Right
    inventoryParent: {fileID: 0}
