%YAML 1.1
%TAG !u! tag:unity3d.com,2011:
--- !u!114 &11400000
MonoBehaviour:
  m_ObjectHideFlags: 0
  m_CorrespondingSourceObject: {fileID: 0}
  m_PrefabInstance: {fileID: 0}
  m_PrefabAsset: {fileID: 0}
  m_GameObject: {fileID: 0}
  m_Enabled: 1
  m_EditorHideFlags: 0
  m_Script: {fileID: 11500000, guid: 77141cbbd6dfd214c9b464b814f39c27, type: 3}
  m_Name: Tactical Helmet
  m_EditorClassIdentifier: 
  itemInstancePrefab: {fileID: 927126198063271230, guid: 4c478c30c7cb54b4fb529fafa5beecfd, type: 3}
  inventoryData:
    slots: []
    internalSlots: []
    internalSlotCount: 0
    inventoryParent: {fileID: 0}
