%YAML 1.1
%TAG !u! tag:unity3d.com,2011:
--- !u!162 &1
EditorUserSettings:
  m_ObjectHideFlags: 0
  serializedVersion: 4
  m_ConfigSettings:
    RecentlyUsedScenePath-0:
      value: 22424703114646680e0b0227036c6c111b07142f1f2b233e2867083debf42d
      flags: 0
    RecentlyUsedScenePath-1:
      value: 2242470311464678040b00232333561b13582c223e2d27346d07143de8e17b1dfae63bf9eb3f70192103e22c083b323cf7040c45e305031f08
      flags: 0
    RecentlyUsedScenePath-2:
      value: 224247031146467c222f3c6d353b5e1d061b1d39631b2535232c5326ece92021
      flags: 0
    RecentlyUsedScenePath-3:
      value: 224247031146466b020215251f2d7d110203142f1e273f31212c5200e1e53a3df1a812ecea357129370bfb25
      flags: 0
    vcSharedLogLevel:
      value: 0d5e400f0650
      flags: 0
  m_VCAutomaticAdd: 1
  m_VCDebugCom: 0
  m_VCDebugCmd: 0
  m_VCDebugOut: 0
  m_SemanticMergeMode: 2
  m_VCShowFailedCheckout: 1
  m_VCOverwriteFailedCheckoutAssets: 1
  m_VCProjectOverlayIcons: 1
  m_VCHierarchyOverlayIcons: 1
  m_VCOtherOverlayIcons: 1
  m_VCAllowAsyncUpdate: 1
